{
   "data": [
      {
         "name": "Dijkstra United",
         "category": "Sports Team",
         "id": "179023879268637",
         "created_time": "2017-03-12T04:14:23+0000"
      },
      {
         "name": "Crazyhd.com",
         "category": "Internet Company",
         "id": "421293027980550",
         "created_time": "2017-01-16T15:50:00+0000"
      },
      {
         "name": "CSE, SUST",
         "category": "Education",
         "category_list": [
            {
               "id": "2250",
               "name": "Education"
            }
         ],
         "id": "1866896096874887",
         "created_time": "2016-12-18T04:06:32+0000"
      },
      {
         "name": "Intel",
         "category": "Product/Service",
         "id": "22707976849",
         "created_time": "2011-06-01T05:57:38+0000"
      },
      {
         "name": "BPL - Bangladesh Premier League",
         "category": "Sports League",
         "id": "271292533266851",
         "created_time": "2016-11-04T15:52:30+0000"
      },
      {
         "name": "\u09a4\u09b0\u09c1\u09a3 \u09ac\u09be\u0982\u09b2\u09be\u09a6\u09c7\u09b6",
         "category": "Magazine",
         "id": "456117924589921",
         "created_time": "2016-05-08T16:35:47+0000"
      },
      {
         "name": "Troll SUST",
         "category": "Magazine",
         "id": "177363705735243",
         "created_time": "2015-07-18T13:33:49+0000"
      },
      {
         "name": "PlusPro",
         "category": "Company",
         "id": "392395317583289",
         "created_time": "2014-12-14T10:23:48+0000"
      },
      {
         "name": "Dr Zakir Naik",
         "category": "Public Figure",
         "id": "181836051979249",
         "created_time": "2014-06-30T12:38:29+0000"
      },
      {
         "name": "Bangladesh Cricket : The Tigers",
         "category": "Other",
         "id": "1374983146102829",
         "created_time": "2014-04-02T17:17:11+0000"
      },
      {
         "name": "Backstreet Boys",
         "category": "Musician/Band",
         "id": "5736008378",
         "created_time": "2014-03-09T18:41:48+0000"
      },
      {
         "name": "\u09b8\u09be\u09b8\u09cd\u099f\u09c7\u09b0 \u099d\u09cb\u09b2\u09ac\u09be\u099c \u09aa\u09cb\u09b2\u09be\u09aa\u09be\u0987\u09a8",
         "category": "Community",
         "id": "290190694463981",
         "created_time": "2014-03-07T12:04:33+0000"
      },
      {
         "name": "Hugh Jackman",
         "category": "Public Figure",
         "id": "167633226631991",
         "created_time": "2014-03-02T19:59:02+0000"
      },
      {
         "name": "\u674e\u8fde\u6770 Jet Li",
         "category": "Artist",
         "id": "16382418987",
         "created_time": "2014-02-22T15:35:00+0000"
      },
      {
         "name": "Tom and Jerry",
         "category": "TV Show",
         "id": "131583793581459",
         "created_time": "2014-02-22T15:34:54+0000"
      },
      {
         "name": "Jason Statham",
         "category": "Artist",
         "id": "100827133412869",
         "created_time": "2014-02-22T15:34:42+0000"
      },
      {
         "name": "\u6210\u9f8d Jackie Chan",
         "category": "Artist",
         "id": "30382852317",
         "created_time": "2014-02-15T07:02:45+0000"
      },
      {
         "name": "Will Smith",
         "category": "Artist",
         "id": "92304305160",
         "created_time": "2014-02-15T07:02:37+0000"
      },
      {
         "name": "\u099a\u09bf\u09a8\u09cd\u09a4\u09be\u09df \u099a\u09c7\u09a4\u09a8\u09be\u09df \u0997\u09a3\u09bf\u09a4\u09c7\u09b0 \u09b0\u09c7\u09a8\u09c7\u09b8\u09be\u0981",
         "category": "Education",
         "category_list": [
            {
               "id": "199797140033948",
               "name": "Educational Consultant"
            }
         ],
         "id": "306493862756875",
         "created_time": "2013-10-10T02:36:16+0000"
      },
      {
         "name": "UNMAD",
         "category": "Magazine",
         "id": "26018931544",
         "created_time": "2013-09-13T02:38:06+0000"
      },
      {
         "name": "Criminal Case",
         "category": "Games/Toys",
         "id": "129079313911235",
         "created_time": "2013-07-17T20:46:40+0000"
      },
      {
         "name": "Computer Programming (\u0995\u09ae\u09cd\u09aa\u09bf\u0989\u099f\u09be\u09b0 \u09aa\u09cd\u09b0\u09cb\u0997\u09cd\u09b0\u09be\u09ae\u09bf\u0982)",
         "category": "Book",
         "id": "132510440153052",
         "created_time": "2013-03-07T16:41:18+0000"
      },
      {
         "name": "Cricket",
         "category": "Interest",
         "id": "103992339636529",
         "created_time": "2013-02-04T21:12:22+0000"
      },
      {
         "name": "khai,ghumai,adda dei",
         "category": "Company",
         "id": "193974330619292",
         "created_time": "2013-01-23T13:02:03+0000"
      },
      {
         "name": "Shahjalal University of Science and Technology",
         "category": "College & University",
         "category_list": [
            {
               "id": "2602",
               "name": "College & University"
            }
         ],
         "id": "105992862767997",
         "created_time": "2013-01-04T03:08:05+0000"
      }
   ],
   "paging": {
      "cursors": {
         "before": "MTc5MDIzODc5MjY4NjM3",
         "after": "MTA1OTkyODYyNzY3OTk3"
      },
      "next": "https://graph.facebook.com/v2.3/997560040284924/likes?access_token=EAACEdEose0cBAHqTLqXgMMdhqSusm6Ax1LXvE5it8jK0cve8IXnlKtyrIE0nR1ZA3kMUNgOglkNrJ6ic7I69W8ETaFsiPuT9hGxm86nhp70H5E7IjEFhLATPrimiMZCq1LNIdPz8ahs82B1LNq5cvqDXNDEoNOjHCaMJBUsBZCJa0b89vFXNhASntlkyZB4ZD&pretty=1&summary=total_count&limit=25&after=MTA1OTkyODYyNzY3OTk3"
   },
   "summary": {
      "total_count": 69
   }
}
